{
  "definitions": {},
  "$schema": "http://json-schema.org/draft-07/schema#",
  "$id": "http://example.com/root.json",
  "type": "object",
  "title": "The Root Schema",
  "required": [
    "candy"
  ],
  "properties": {
    "candy": {
      "$id": "#/properties/candy",
      "type": "array",
      "title": "The Candy Schema",
      "items": {
        "$id": "#/properties/candy/items",
        "type": "object",
        "title": "The Items Schema",
        "required": [
          "name",
          "energy",
          "type",
          "ingredients",
          "value",
          "production"
        ],
        "properties": {
          "name": {
            "$id": "#/properties/candy/items/properties/name",
            "type": "string",
            "title": "The Name Schema",
            "default": "",
            "examples": [
              "YumYum"
            ],
            "pattern": "^(.*)$"
          },
          "energy": {
            "$id": "#/properties/candy/items/properties/energy",
            "type": "integer",
            "title": "The Energy Schema",
            "default": 0,
            "examples": [
              500
            ],
            "minimum": 0.0
          },
          "type": {
            "$id": "#/properties/candy/items/properties/type",
            "type": "string",
            "title": "The Type Schema",
            "default": "",
            "examples": [
              "chocolate"
            ],
            "pattern": "^(.*)$"
          },
          "ingredients": {
            "$id": "#/properties/candy/items/properties/ingredients",
            "type": "object",
            "title": "The Ingredients Schema",
            "required": [
              "water",
              "sugar",
              "fructose",
              "vanillin"
            ],
            "properties": {
              "water": {
                "$id": "#/properties/candy/items/properties/ingredients/properties/water",
                "type": "integer",
                "title": "The Water Schema",
                "default": 0,
                "examples": [
                  10
                ]
              },
              "sugar": {
                "$id": "#/properties/candy/items/properties/ingredients/properties/sugar",
                "type": "integer",
                "title": "The Sugar Schema",
                "default": 0,
                "examples": [
                  25
                ]
              },
              "fructose": {
                "$id": "#/properties/candy/items/properties/ingredients/properties/fructose",
                "type": "integer",
                "title": "The Fructose Schema",
                "default": 0,
                "examples": [
                  12
                ]
              },
              "vanillin": {
                "$id": "#/properties/candy/items/properties/ingredients/properties/vanillin",
                "type": "integer",
                "title": "The Vanillin Schema",
                "default": 0,
                "examples": [
                  3
                ]
              }
            }
          },
          "value": {
            "$id": "#/properties/candy/items/properties/value",
            "type": "object",
            "title": "The Value Schema",
            "required": [
              "proteins",
              "fats",
              "carbohydrates"
            ],
            "properties": {
              "proteins": {
                "$id": "#/properties/candy/items/properties/value/properties/proteins",
                "type": "integer",
                "title": "The Proteins Schema",
                "default": 0,
                "examples": [
                  10
                ],
                "minimum": 0.0
              },
              "fats": {
                "$id": "#/properties/candy/items/properties/value/properties/fats",
                "type": "integer",
                "title": "The Fats Schema",
                "default": 0,
                "examples": [
                  23
                ],
                "minimum": 0.0
              },
              "carbohydrates": {
                "$id": "#/properties/candy/items/properties/value/properties/carbohydrates",
                "type": "integer",
                "title": "The Carbohydrates Schema",
                "default": 0,
                "examples": [
                  50
                ],
                "minimum": 0.0
              }
            }
          },
          "production": {
            "$id": "#/properties/candy/items/properties/production",
            "type": "string",
            "title": "The Production Schema",
            "default": "",
            "examples": [
              "Svitoch"
            ],
            "pattern": "^(.*)$"
          }
        }
      }
    }
  }
}